{
    "pager": {
        "hasMore": true,
        "nextPage": "2",
        "page": "1",
        "perPage": 24,
        "totalCount": 77
    },
    "items": [
        {
            "subjectId": "8382755684005333552",
            "subjectType": 2,
            "title": "Merlin",
            "description": "",
            "releaseDate": "2009-06-21",
            "duration": 0,
            "genre": "Adventure,Drama,Fantasy",
            "cover": {
                "url": "https://pacdn.aoneroom.com/image/2023/05/16/0169539a6cc742265be8c34259bd27cc.jpg",
                "width": 3472,
                "height": 5031,
                "size": 1679272,
                "format": "jpg",
                "thumbnail": "",
                "blurHash": "ekE{IUt7S5bIX9_NofkCkBof%hbIs:oes:%NofjYoLfjxuoLRjazWC",
                "gif": null,
                "avgHueLight": "#67564d",
                "avgHueDark": "#665851",
                "id": "0"
            },
            "countryName": "United Kingdom",
            "imdbRatingValue": "7.9",
            "subtitles": "English,Espa\u00f1ol,Filipino,Fran\u00e7ais,Indonesian,Portugu\u00eas,T\u00fcrk\u00e7e,ti\u1ebfng Vi\u1ec7t,\u0420\u0443\u0441\u0441\u043a\u0438\u0439,\u0627\u064e\u0644\u0652\u0639\u064e\u0631\u064e\u0628\u0650\u064a\u064e\u0651\u0629\u064f,\u0627\u064f\u0631\u062f\u064f\u0648,\u09ac\u09be\u0982\u09b2\u09be,\u0a2a\u0a70\u0a1c\u0a3e\u0a2c\u0a40,\u0e20\u0e32\u0e29\u0e32\u0e44\u0e17\u0e22,\u4e2d\u6587",
            "ops": "{\"rid\":\"26a100e9-2e15-4eba-b5bb-ea23bc61d2d2\",\"trace_id\":\"0a21c91617543150526870372fa1e37a\"}",
            "hasResource": true,
            "trailer": null,
            "detailPath": "merlin-sMxCiIO6fZ9",
            "staffList": [],
            "appointmentCnt": 0,
            "appointmentDate": "",
            "corner": "",
            "imdbRatingCount": 85853
        },
        {
            "subjectId": "8926879911005044688",
            "subjectType": 2,
            "title": "Merlin",
            "description": "",
            "releaseDate": "2025-01-01",
            "duration": 0,
            "genre": "Adventure,Comedy,Fantasy",
            "cover": {
                "url": "https://pacdn.aoneroom.com/image/2023/08/09/fbeac37c48e0dd013c74a3d434c1a9d0.jpg",
                "width": 811,
                "height": 1150,
                "size": 106663,
                "format": "jpg",
                "thumbnail": "",
                "blurHash": "eTJuAaRj~q%MRjRjt7t7t7xuxuWBD%RjWB?bayayofRj%MxuM{WBj[",
                "gif": null,
                "avgHueLight": "#999292",
                "avgHueDark": "#666161",
                "id": "0"
            },
            "countryName": "",
            "imdbRatingValue": "6.6",
            "subtitles": "English,Filipino,Fran\u00e7ais,Indonesian,Portugu\u00eas,\u0420\u0443\u0441\u0441\u043a\u0438\u0439,\u0627\u064e\u0644\u0652\u0639\u064e\u0631\u064e\u0628\u0650\u064a\u064e\u0651\u0629\u064f,\u0627\u064f\u0631\u062f\u064f\u0648,\u09ac\u09be\u0982\u09b2\u09be,\u0a2a\u0a70\u0a1c\u0a3e\u0a2c\u0a40,\u4e2d\u6587",
            "ops": "{\"rid\":\"26a100e9-2e15-4eba-b5bb-ea23bc61d2d2\",\"trace_id\":\"0a21c91617543150526870372fa1e37a\"}",
            "hasResource": true,
            "trailer": null,
            "detailPath": "merlin-Iw9oGRGcrDa",
            "staffList": [],
            "appointmentCnt": 0,
            "appointmentDate": "",
            "corner": "",
            "imdbRatingCount": 50
        },
        {
            "subjectId": "2374504353567756072",
            "subjectType": 2,
            "title": "Merlin",
            "description": "",
            "releaseDate": "1998-04-26",
            "duration": 0,
            "genre": "Action,Adventure,Drama",
            "cover": {
                "url": "https://pacdn.aoneroom.com/image/2022/09/07/feb49144247b0fe0bd6b0b43deda7ada.jpg",
                "width": 339,
                "height": 475,
                "size": 34933,
                "format": "jpg",
                "thumbnail": "",
                "blurHash": "eDBpLs9GtojHj^~XD+%NjFt7kPN0t2axkBNGt2V?NGRj0M%K$%NGW,",
                "gif": null,
                "avgHueLight": "#4e4458",
                "avgHueDark": "#4e4458",
                "id": "0"
            },
            "countryName": "United States",
            "imdbRatingValue": "7.1",
            "subtitles": "English,Espa\u00f1ol,Filipino,Fran\u00e7ais,Indonesian,Portugu\u00eas,T\u00fcrk\u00e7e,ti\u1ebfng Vi\u1ec7t,\u0420\u0443\u0441\u0441\u043a\u0438\u0439,\u0627\u064e\u0644\u0652\u0639\u064e\u0631\u064e\u0628\u0650\u064a\u064e\u0651\u0629\u064f,\u0627\u064f\u0631\u062f\u064f\u0648,\u09ac\u09be\u0982\u09b2\u09be,\u0a2a\u0a70\u0a1c\u0a3e\u0a2c\u0a40,\u0e20\u0e32\u0e29\u0e32\u0e44\u0e17\u0e22,\u4e2d\u6587",
            "ops": "{\"rid\":\"26a100e9-2e15-4eba-b5bb-ea23bc61d2d2\",\"trace_id\":\"0a21c91617543150526870372fa1e37a\"}",
            "hasResource": true,
            "trailer": null,
            "detailPath": "merlin-U0cyRIOfpP2",
            "staffList": [],
            "appointmentCnt": 0,
            "appointmentDate": "",
            "corner": "",
            "imdbRatingCount": 23365
        },
        {
            "subjectId": "3969435470332838736",
            "subjectType": 2,
            "title": "Merlin: Secrets & Magic",
            "description": "",
            "releaseDate": "2009-09-19",
            "duration": 0,
            "genre": "Documentary",
            "cover": {
                "url": "https://pacdn.aoneroom.com/image/2023/08/11/92240089a601289e2a16ff3fa5cf838c.jpg",
                "width": 680,
                "height": 1000,
                "size": 83252,
                "format": "jpg",
                "thumbnail": "",
                "blurHash": "eH8O0Zx]M{RPIo?^x]ayM{M{.8%LofM{Rjx^xajZNHayW=ayofkCj[",
                "gif": null,
                "avgHueLight": "#323e3e",
                "avgHueDark": "#323e3e",
                "id": "0"
            },
            "countryName": "United Kingdom",
            "imdbRatingValue": "8.3",
            "subtitles": "English,Filipino,Fran\u00e7ais,Indonesian,Portugu\u00eas,\u0420\u0443\u0441\u0441\u043a\u0438\u0439,\u0627\u064e\u0644\u0652\u0639\u064e\u0631\u064e\u0628\u0650\u064a\u064e\u0651\u0629\u064f,\u0627\u064f\u0631\u062f\u064f\u0648,\u09ac\u09be\u0982\u09b2\u09be,\u0a2a\u0a70\u0a1c\u0a3e\u0a2c\u0a40",
            "ops": "{\"rid\":\"26a100e9-2e15-4eba-b5bb-ea23bc61d2d2\",\"trace_id\":\"0a21c91617543150526870372fa1e37a\"}",
            "hasResource": true,
            "trailer": null,
            "detailPath": "merlin-secrets-and-magic-AEJVrrv3eJ4",
            "staffList": [],
            "appointmentCnt": 0,
            "appointmentDate": "",
            "corner": "",
            "imdbRatingCount": 797
        },
        {
            "subjectId": "7312701344979504936",
            "subjectType": 2,
            "title": "Law & Order: Special Victims Unit",
            "description": "",
            "releaseDate": "2025-01-01",
            "duration": 0,
            "genre": "Crime,Drama,Mystery",
            "cover": {
                "url": "https://pacdn.aoneroom.com/image/2025/06/15/b8e55d1be8cde06a570591ad0bf084eb.jpg",
                "width": 675,
                "height": 1000,
                "size": 84866,
                "format": "jpg",
                "thumbnail": "",
                "blurHash": "e57nI2%14.01Rj_3%2D*9ZoeD*xuaexuof9GNH-p?Ha}4.E1?a%Lof",
                "gif": null,
                "avgHueLight": "#332f2d",
                "avgHueDark": "#333130",
                "id": "0"
            },
            "countryName": "United States",
            "imdbRatingValue": "8.1",
            "subtitles": "English,Filipino,Fran\u00e7ais,Indonesian,Portugu\u00eas,\u0420\u0443\u0441\u0441\u043a\u0438\u0439,\u0627\u064e\u0644\u0652\u0639\u064e\u0631\u064e\u0628\u0650\u064a\u064e\u0651\u0629\u064f,\u0627\u064f\u0631\u062f\u064f\u0648,\u09ac\u09be\u0982\u09b2\u09be,\u0a2a\u0a70\u0a1c\u0a3e\u0a2c\u0a40,\u4e2d\u6587",
            "ops": "{\"rid\":\"26a100e9-2e15-4eba-b5bb-ea23bc61d2d2\",\"trace_id\":\"0a21c91617543150526870372fa1e37a\"}",
            "hasResource": true,
            "trailer": null,
            "detailPath": "law-and-order-special-victims-unit-EmL6y0ufcI8",
            "staffList": [],
            "appointmentCnt": 0,
            "appointmentDate": "",
            "corner": "",
            "imdbRatingCount": 138447
        },
        {
            "subjectId": "3565821244450717648",
            "subjectType": 2,
            "title": "Sirens",
            "description": "",
            "releaseDate": "2015-01-01",
            "duration": 0,
            "genre": "Comedy,Drama,Romance",
            "cover": {
                "url": "https://pacdn.aoneroom.com/image/2025/05/25/de52afdc6d8b6f8997ae1c39b33ab88d.jpg",
                "width": 583,
                "height": 755,
                "size": 67120,
                "format": "jpg",
                "thumbnail": "",
                "blurHash": "erH_=EoKR+jYRj~qoLozaxkCsoofxuofofs9ozoft7kCxukCaej[j[",
                "gif": null,
                "avgHueLight": "#837f87",
                "avgHueDark": "#636066",
                "id": "0"
            },
            "countryName": "United States",
            "imdbRatingValue": "7.8",
            "subtitles": "English,Filipino,Fran\u00e7ais,Indonesian,Portugu\u00eas,\u0420\u0443\u0441\u0441\u043a\u0438\u0439,\u0627\u064e\u0644\u0652\u0639\u064e\u0631\u064e\u0628\u0650\u064a\u064e\u0651\u0629\u064f,\u0627\u064f\u0631\u062f\u064f\u0648,\u09ac\u09be\u0982\u09b2\u09be,\u0a2a\u0a70\u0a1c\u0a3e\u0a2c\u0a40",
            "ops": "{\"rid\":\"26a100e9-2e15-4eba-b5bb-ea23bc61d2d2\",\"trace_id\":\"0a21c91617543150526870372fa1e37a\"}",
            "hasResource": true,
            "trailer": null,
            "detailPath": "sirens-qN8LHEWupf4",
            "staffList": [],
            "appointmentCnt": 0,
            "appointmentDate": "",
            "corner": "",
            "imdbRatingCount": 6902
        },
        {
            "subjectId": "7587723453302981456",
            "subjectType": 2,
            "title": "Tayo, the Little Bus",
            "description": "",
            "releaseDate": "2010-08-23",
            "duration": 0,
            "genre": "Animation,Comedy,Family",
            "cover": {
                "url": "https://pacdn.aoneroom.com/image/2023/08/12/f9b0e3db6944cc17adf0dcbd029053e5.jpg",
                "width": 960,
                "height": 1440,
                "size": 174244,
                "format": "jpg",
                "thumbnail": "",
                "blurHash": "eLB=VQG0%Mr?jFPqxuk?W?xtNgwGXUtSozWsafbuxGV[#kxAo~n#xG",
                "gif": null,
                "avgHueLight": "#4c8999",
                "avgHueDark": "#325b66",
                "id": "0"
            },
            "countryName": "Korea",
            "imdbRatingValue": "5.3",
            "subtitles": "",
            "ops": "{\"rid\":\"26a100e9-2e15-4eba-b5bb-ea23bc61d2d2\",\"trace_id\":\"0a21c91617543150526870372fa1e37a\"}",
            "hasResource": true,
            "trailer": null,
            "detailPath": "tayo-the-little-bus-6nuA6sWQv29",
            "staffList": [],
            "appointmentCnt": 0,
            "appointmentDate": "",
            "corner": "",
            "imdbRatingCount": 175
        }
    ],
    "counts": [
        {
            "subjectType": 0,
            "name": "All",
            "num": 0
        },
        {
            "subjectType": 2,
            "name": "Series",
            "num": 0
        }
    ],
    "url": "",
    "referer": ""
}