{
    "code": 0,
    "message": "ok",
    "data": {
        "pager": {
            "hasMore": true,
            "nextPage": "2",
            "page": "1",
            "perPage": 24,
            "totalCount": 77
        },
        "items": [
            {
                "subjectId": "9121741020298891048",
                "subjectType": 2,
                "title": "Titans",
                "description": "",
                "releaseDate": "2018-10-12",
                "duration": 0,
                "genre": "Action,Adventure,Crime",
                "cover": {
                    "url": "https://pacdn.aoneroom.com/image/2024/03/19/0c629934721201df2cda15f0fa9e582c.jpg",
                    "width": 2025,
                    "height": 3000,
                    "size": 1015560,
                    "format": "jpg",
                    "thumbnail": "",
                    "blurHash": "eAC~6-wbMxxvM{PVsT5kNuIo+aWsEff#NG{|xb-ps,R+1fr?OrN_R+",
                    "gif": null,
                    "avgHueLight": "#5d424c",
                    "avgHueDark": "#5d424c",
                    "id": "0"
                },
                "countryName": "United States",
                "imdbRatingValue": "6.1",
                "subtitles": "English,Filipino,Français,Indonesian,Kiswahili,Português,Русский,اَلْعَرَبِيَّةُ,اُردُو,هَرْشٜن هَوْس,বাংলা,ਪੰਜਾਬੀ,中文",
                "ops": "{\"rid\":\"505cd6b6-2d1e-45c4-847c-250f86ddc667\",\"trace_id\":\"0a21d6cf1752999734114067f098309c\"}",
                "hasResource": true,
                "trailer": null,
                "detailPath": "titans-WxM07YzFPRa",
                "staffList": [],
                "appointmentCnt": 0,
                "appointmentDate": "",
                "corner": "",
                "imdbRatingCount": 0
            },
            {
                "subjectId": "3735541584436282448",
                "subjectType": 2,
                "title": "Titans",
                "description": "",
                "releaseDate": "2016-04-06",
                "duration": 0,
                "genre": "Sport",
                "cover": {
                    "url": "https://pacdn.aoneroom.com/image/2024/01/04/bdf0808da00abff07a338729beeb8a23.jpg",
                    "width": 1000,
                    "height": 750,
                    "size": 81379,
                    "format": "jpg",
                    "thumbnail": "",
                    "blurHash": "eJI^Y|sB{z=Kwyw{,s=0w_S2n4SgozNaOBr?wfxGWojag3WVV@w{w{",
                    "gif": null,
                    "avgHueLight": "#991f22",
                    "avgHueDark": "#661517",
                    "id": "0"
                },
                "countryName": "United States",
                "imdbRatingValue": "6.8",
                "subtitles": "English,Filipino,Français,Indonesian,Kiswahili,Português,Русский,اَلْعَرَبِيَّةُ,اُردُو,هَرْشٜن هَوْس,বাংলা,ਪੰਜਾਬੀ,中文",
                "ops": "{\"rid\":\"505cd6b6-2d1e-45c4-847c-250f86ddc667\",\"trace_id\":\"0a21d6cf1752999734114067f098309c\"}",
                "hasResource": true,
                "trailer": null,
                "detailPath": "titans-2Zk7VpQOWr4",
                "staffList": [],
                "appointmentCnt": 0,
                "appointmentDate": "",
                "corner": "",
                "imdbRatingCount": 0
            },
            {
                "subjectId": "5826224461745374032",
                "subjectType": 2,
                "title": "Teen Titans Go!",
                "description": "",
                "releaseDate": "2025-01-01",
                "duration": 0,
                "genre": "Animation,Short,Action",
                "cover": {
                    "url": "https://pacdn.aoneroom.com/image/2025/06/15/463cd94be235aea7ad5b023cb6298bbd.jpg",
                    "width": 1365,
                    "height": 2048,
                    "size": 271265,
                    "format": "jpg",
                    "thumbnail": "",
                    "blurHash": "eQKy3~xw.m?EyU-WbEawf-S4YhniS1o#IBkkRkt9xBaeL0oaD$I[jd",
                    "gif": null,
                    "avgHueLight": "#7e9989",
                    "avgHueDark": "#58665e",
                    "id": "0"
                },
                "countryName": "United States",
                "imdbRatingValue": "5.7",
                "subtitles": "English,Filipino,Français,Indonesian,اَلْعَرَبِيَّةُ,اُردُو,বাংলা,中文",
                "ops": "{\"rid\":\"505cd6b6-2d1e-45c4-847c-250f86ddc667\",\"trace_id\":\"0a21d6cf1752999734114067f098309c\"}",
                "hasResource": true,
                "trailer": null,
                "detailPath": "teen-titans-go-cu6ZbTwaoW6",
                "staffList": [],
                "appointmentCnt": 0,
                "appointmentDate": "",
                "corner": "",
                "imdbRatingCount": 0
            },
            {
                "subjectId": "1975770531236301600",
                "subjectType": 2,
                "title": "Attack on Titan",
                "description": "",
                "releaseDate": "2013-04-07",
                "duration": 0,
                "genre": "Anime,Action,Adventure",
                "cover": {
                    "url": "https://pacdn.aoneroom.com/image/2024/04/15/e214b039c7e9e29d9ed6283508b404d0.jpg",
                    "width": 889,
                    "height": 1200,
                    "size": 122424,
                    "format": "jpg",
                    "thumbnail": "",
                    "blurHash": "ePGs#:$jIVW.IrD-s:JmNHf~10oe%JjZww%JNbwKxZIrIqR+RnxF%J",
                    "gif": null,
                    "avgHueLight": "#824326",
                    "avgHueDark": "#663722",
                    "id": "0"
                },
                "countryName": "Japan",
                "imdbRatingValue": "6.5",
                "subtitles": "English,Español,Filipino,Français,Indonesian,Kiswahili,Malay,Português,Türkçe,tiếng Việt,Русский,اَلْعَرَبِيَّةُ,اُردُو,فارسی,هَرْشٜن هَوْس,বাংলা,ਪੰਜਾਬੀ,ภาษาไทย,中文",
                "ops": "{\"rid\":\"505cd6b6-2d1e-45c4-847c-250f86ddc667\",\"trace_id\":\"0a21d6cf1752999734114067f098309c\"}",
                "hasResource": true,
                "trailer": null,
                "detailPath": "attack-on-titan-c0p85b63Xl2",
                "staffList": [],
                "appointmentCnt": 0,
                "appointmentDate": "",
                "corner": "",
                "imdbRatingCount": 0
            },
            {
                "subjectId": "8942886601282175824",
                "subjectType": 2,
                "title": "Teen Titans",
                "description": "",
                "releaseDate": "2006-01-01",
                "duration": 0,
                "genre": "Animation,Action,Adventure",
                "cover": {
                    "url": "https://pacdn.aoneroom.com/image/2024/08/06/6061047a41e86532cbef9ff67095f58b.jpg",
                    "width": 1000,
                    "height": 1500,
                    "size": 185883,
                    "format": "jpg",
                    "thumbnail": "",
                    "blurHash": "eFG@GX#RH[SirX,]NZr^Nekk*KShFxS}X8#R$kslodr?akj?KJaKI[",
                    "gif": null,
                    "avgHueLight": "#854f43",
                    "avgHueDark": "#663d33",
                    "id": "0"
                },
                "countryName": "United States",
                "imdbRatingValue": "7.9",
                "subtitles": "English,Filipino,Français,Indonesian,اَلْعَرَبِيَّةُ,اُردُو,বাংলা",
                "ops": "{\"rid\":\"505cd6b6-2d1e-45c4-847c-250f86ddc667\",\"trace_id\":\"0a21d6cf1752999734114067f098309c\"}",
                "hasResource": true,
                "trailer": null,
                "detailPath": "teen-titans-sKCpICXvCEa",
                "staffList": [],
                "appointmentCnt": 0,
                "appointmentDate": "",
                "corner": "",
                "imdbRatingCount": 0
            },
            {
                "subjectId": "7367698047943721944",
                "subjectType": 2,
                "title": "titans",
                "description": "",
                "releaseDate": "2023-01-01",
                "duration": 0,
                "genre": "Nollywood",
                "cover": {
                    "url": "https://pacdn.aoneroom.com/image/2024/08/26/cd54fc52d41cef70085a325355418a03.jpg",
                    "width": 900,
                    "height": 506,
                    "size": 28400,
                    "format": "webp",
                    "thumbnail": "",
                    "blurHash": "edI:?yn,K6M~oz~pWEflWqn+%zR+oJxWWC^*aeSfWBkC-:n%ayNHj[",
                    "gif": null,
                    "avgHueLight": "#96633e",
                    "avgHueDark": "#66432a",
                    "id": "0"
                },
                "countryName": "Nigeria",
                "imdbRatingValue": "6.8",
                "subtitles": "English,Filipino,Français,Indonesian,Português,اَلْعَرَبِيَّةُ,اُردُو,বাংলা,中文",
                "ops": "{\"rid\":\"505cd6b6-2d1e-45c4-847c-250f86ddc667\",\"trace_id\":\"0a21d6cf1752999734114067f098309c\"}",
                "hasResource": true,
                "trailer": null,
                "detailPath": "titans-a77aXNn8gM8",
                "staffList": [],
                "appointmentCnt": 0,
                "appointmentDate": "",
                "corner": "",
                "imdbRatingCount": 0
            },
            {
                "subjectId": "6808330787663298512",
                "subjectType": 2,
                "title": "Titans",
                "description": "",
                "releaseDate": "2024-01-01",
                "duration": 0,
                "genre": "Comedy",
                "cover": {
                    "url": "https://pacdn.aoneroom.com/image/2024/07/11/70930ec14378aee33821a1b8045cc2a6.jpg",
                    "width": 2550,
                    "height": 1450,
                    "size": 102933,
                    "format": "jpg",
                    "thumbnail": "",
                    "blurHash": "euL|l*ayt7xuay~Ws;WBayWB9Fj[WUWBof%2R*oyt7ofxaofWBWBWB",
                    "gif": null,
                    "avgHueLight": "#99878c",
                    "avgHueDark": "#665a5d",
                    "id": "0"
                },
                "countryName": "United States",
                "imdbRatingValue": "6.9",
                "subtitles": "English,Filipino,Français,Indonesian,Português,Русский,اَلْعَرَبِيَّةُ,اُردُو,বাংলা,ਪੰਜਾਬੀ,中文",
                "ops": "{\"rid\":\"505cd6b6-2d1e-45c4-847c-250f86ddc667\",\"trace_id\":\"0a21d6cf1752999734114067f098309c\"}",
                "hasResource": true,
                "trailer": null,
                "detailPath": "titans-i9KVkv5eW68",
                "staffList": [],
                "appointmentCnt": 0,
                "appointmentDate": "",
                "corner": "",
                "imdbRatingCount": 0
            },
            {
                "subjectId": "6626477285325554512",
                "subjectType": 2,
                "title": "Titans",
                "description": "",
                "releaseDate": "2001-01-01",
                "duration": 0,
                "genre": "Drama,Romance",
                "cover": {
                    "url": "https://pacdn.aoneroom.com/image/2023/08/09/4f97e31ef1ff94360f2340308599d9e3.jpg",
                    "width": 670,
                    "height": 870,
                    "size": 106815,
                    "format": "jpg",
                    "thumbnail": "",
                    "blurHash": "etM6*i?^yDxuxaxvR*o2oKWBNdnit7ofRjt7jsoLWWkCkWayn+WBjs",
                    "gif": null,
                    "avgHueLight": "#997976",
                    "avgHueDark": "#66514f",
                    "id": "0"
                },
                "countryName": "United States",
                "imdbRatingValue": "5.9",
                "subtitles": "",
                "ops": "{\"rid\":\"505cd6b6-2d1e-45c4-847c-250f86ddc667\",\"trace_id\":\"0a21d6cf1752999734114067f098309c\"}",
                "hasResource": true,
                "trailer": null,
                "detailPath": "titans-q33meCQkvT7",
                "staffList": [],
                "appointmentCnt": 0,
                "appointmentDate": "",
                "corner": "",
                "imdbRatingCount": 0
            },
            {
                "subjectId": "3155935829445461624",
                "subjectType": 2,
                "title": "Waking the Titanic",
                "description": "",
                "releaseDate": "2013-01-01",
                "duration": 3120,
                "genre": "Documentary,History",
                "cover": {
                    "url": "https://pacdn.aoneroom.com/image/2023/03/30/9213943102bfe9539c141b29722207cb.jpg",
                    "width": 1020,
                    "height": 1470,
                    "size": 226772,
                    "format": "jpg",
                    "thumbnail": "",
                    "blurHash": "e7A0,gbb0f%gWAK7xtxtNHofI@x[?uWAR.%LNHtRxtt6uPW.NekXxt",
                    "gif": null,
                    "avgHueLight": "#47443e",
                    "avgHueDark": "#47443e",
                    "id": "0"
                },
                "countryName": "",
                "imdbRatingValue": "5.9",
                "subtitles": "",
                "ops": "{\"rid\":\"505cd6b6-2d1e-45c4-847c-250f86ddc667\",\"trace_id\":\"0a21d6cf1752999734114067f098309c\"}",
                "hasResource": true,
                "trailer": null,
                "detailPath": "waking-the-titanic-ylAsh4Cd8L3",
                "staffList": [],
                "appointmentCnt": 0,
                "appointmentDate": "",
                "corner": "",
                "imdbRatingCount": 0
            },
            {
                "subjectId": "2158520028176466768",
                "subjectType": 2,
                "title": "Sym-Bionic Titan",
                "description": "",
                "releaseDate": "2011-01-01",
                "duration": 0,
                "genre": "Animation,Action,Adventure",
                "cover": {
                    "url": "https://pacdn.aoneroom.com/image/2025/03/04/66327c11ce94ffd41eb761650226d609.jpg",
                    "width": 1360,
                    "height": 1960,
                    "size": 254274,
                    "format": "jpg",
                    "thumbnail": "",
                    "blurHash": "eC9G~]NJ4p-oozo}t6RONGj=00xZ-.IVaxwgRjkWxto#xaRjWBx]j]",
                    "gif": null,
                    "avgHueLight": "#3a3a48",
                    "avgHueDark": "#3a3a48",
                    "id": "0"
                },
                "countryName": "United States",
                "imdbRatingValue": "8.1",
                "subtitles": "English,Filipino,Français,Indonesian,اُردُو,বাংলা",
                "ops": "{\"rid\":\"505cd6b6-2d1e-45c4-847c-250f86ddc667\",\"trace_id\":\"0a21d6cf1752999734114067f098309c\"}",
                "hasResource": true,
                "trailer": null,
                "detailPath": "sym-bionic-titan-Ms4ppyL2sz2",
                "staffList": [],
                "appointmentCnt": 0,
                "appointmentDate": "",
                "corner": "",
                "imdbRatingCount": 0
            },
            {
                "subjectId": "6746631142914802512",
                "subjectType": 2,
                "title": "Attack on Titan: Junior High",
                "description": "",
                "releaseDate": "2015-10-04",
                "duration": 0,
                "genre": "Animation,Action,Adventure",
                "cover": {
                    "url": "https://pacdn.aoneroom.com/image/2023/08/12/d8d168d976a8f24fac8cb16d45320b37.jpg",
                    "width": 1000,
                    "height": 1500,
                    "size": 243471,
                    "format": "jpg",
                    "thumbnail": "",
                    "blurHash": "eLG+5Y%Mx[ofXA~pS~xtxZsAJDNLRjs-ni^,n,RlW;S6S6S5e.e.ae",
                    "gif": null,
                    "avgHueLight": "#847a71",
                    "avgHueDark": "#665e57",
                    "id": "0"
                },
                "countryName": "Japan",
                "imdbRatingValue": "7.1",
                "subtitles": "English,Filipino,Français,Indonesian,اُردُو,বাংলা",
                "ops": "{\"rid\":\"505cd6b6-2d1e-45c4-847c-250f86ddc667\",\"trace_id\":\"0a21d6cf1752999734114067f098309c\"}",
                "hasResource": true,
                "trailer": null,
                "detailPath": "attack-on-titan-junior-high-oMawTEODn28",
                "staffList": [],
                "appointmentCnt": 0,
                "appointmentDate": "",
                "corner": "",
                "imdbRatingCount": 0
            },
            {
                "subjectId": "2999301176773985360",
                "subjectType": 2,
                "title": "A Game About Love",
                "description": "",
                "releaseDate": "2006-11-08",
                "duration": 0,
                "genre": "Comedy,Drama,Romance",
                "cover": {
                    "url": "https://pacdn.aoneroom.com/image/2023/08/11/02b23a7f83616ec7ce2f93abcea16f99.jpg",
                    "width": 272,
                    "height": 391,
                    "size": 29360,
                    "format": "jpg",
                    "thumbnail": "",
                    "blurHash": "eSHUkQ%f-CxHkpt:IVIVoLV[T|t8tRofozS~XSRkR%NGrXJBn%V@WX",
                    "gif": null,
                    "avgHueLight": "#8c7575",
                    "avgHueDark": "#665555",
                    "id": "0"
                },
                "countryName": "Taiwan",
                "imdbRatingValue": "5.8",
                "subtitles": "",
                "ops": "{\"rid\":\"505cd6b6-2d1e-45c4-847c-250f86ddc667\",\"trace_id\":\"0a21d6cf1752999734114067f098309c\"}",
                "hasResource": true,
                "trailer": null,
                "detailPath": "a-game-about-love-yxgWAaxPyz3",
                "staffList": [],
                "appointmentCnt": 0,
                "appointmentDate": "",
                "corner": "",
                "imdbRatingCount": 0
            }
        ],
        "counts": [
            {
                "subjectType": 0,
                "name": "All",
                "num": 0
            },
            {
                "subjectType": 2,
                "name": "Series",
                "num": 0
            }
        ],
        "url": "",
        "referer": ""
    }
}