{
    "pager": {
        "hasMore": true,
        "nextPage": "2",
        "page": "1",
        "perPage": 10,
        "totalCount": 38
    },
    "list": [
        {
            "episode": 101,
            "title": "Pilot",
            "resourceLink": "https://bcdn.hakunaymatata.com/resource/h265/24ae34131eb5e6a06cf7ebbaeae36b2a.mp4?sign=12636af88d407bbdc89690ed7a37c975&t=1775471279",
            "linkType": 2,
            "size": "111487650",
            "uploadBy": "Moji Shortbabaa",
            "resourceId": "5565396033850541952",
            "postId": "5539505696112264952",
            "extCaptions": [],
            "se": 1,
            "ep": 1,
            "sourceUrl": "https://ailok.pe/info/Banshee-480P season-1/episode-1-480P/season-1/episode-1-r360P-h265",
            "resolution": 360,
            "codecName": "hevc",
            "duration": 3574,
            "requireMemberType": 0,
            "memberIcon": ""
        },
        {
            "episode": 102,
            "title": "The Rave",
            "resourceLink": "https://bcdn.hakunaymatata.com/bt/6897ef746b9af0843e6ce279819fca62.mp4?sign=a89181c037b73d7e985585cf0d62d8f9&t=1775471505",
            "linkType": 2,
            "size": "151024240",
            "uploadBy": "anaifjfjjffj",
            "resourceId": "3512527663523137312",
            "postId": "4353814346951263672",
            "extCaptions": [],
            "se": 1,
            "ep": 2,
            "sourceUrl": "https://ailok.pe/info/Banshee-480P season-1/episode-2-480P-r360P-264",
            "resolution": 360,
            "codecName": "h264",
            "duration": 3056,
            "requireMemberType": 0,
            "memberIcon": ""
        },
        {
            "episode": 103,
            "title": "Meet the New Boss",
            "resourceLink": "https://bcdn.hakunaymatata.com/bt/bfcc506cd1299d266d5106f6fe5ce3db.mp4?sign=f2a30329f665d78df9f1bc546a4f9182&t=1775471505",
            "linkType": 2,
            "size": "142260047",
            "uploadBy": "Kwesta",
            "resourceId": "4773712580558948128",
            "postId": "6518921585796547336",
            "extCaptions": [],
            "se": 1,
            "ep": 3,
            "sourceUrl": "https://ailok.pe/info/Banshee-480P season-1/episode-3-480P-r360P-264",
            "resolution": 360,
            "codecName": "h264",
            "duration": 2885,
            "requireMemberType": 0,
            "memberIcon": ""
        },
        {
            "episode": 104,
            "title": "Half Deaf Is Better Than All Dead",
            "resourceLink": "https://bcdn.hakunaymatata.com/bt/6d3f88df892b35016c9ef88f74782e10.mp4?sign=d68c17d6b478689ea135210162a10119&t=1775470689",
            "linkType": 2,
            "size": "168095402",
            "uploadBy": "Poppington_1Z",
            "resourceId": "5574472605416966504",
            "postId": "1147251412263389360",
            "extCaptions": [],
            "se": 1,
            "ep": 4,
            "sourceUrl": "https://ailok.pe/info/Banshee-480P season-1/episode-4-480P-r360P-264",
            "resolution": 360,
            "codecName": "h264",
            "duration": 3394,
            "requireMemberType": 0,
            "memberIcon": ""
        },
        {
            "episode": 105,
            "title": "The Kindred",
            "resourceLink": "https://bcdn.hakunaymatata.com/bt/5c1572ecf5f56aaa0e3ceaf0aa1e69de.mp4?sign=8efeb6b63984cc389ec8af34974cc8f1&t=1775471727",
            "linkType": 2,
            "size": "150950908",
            "uploadBy": "Erika",
            "resourceId": "3288861709665977168",
            "postId": "4583119214910866184",
            "extCaptions": [],
            "se": 1,
            "ep": 5,
            "sourceUrl": "https://ailok.pe/info/Banshee-480P season-1/episode-5-480P-r360P-264",
            "resolution": 360,
            "codecName": "h264",
            "duration": 3053,
            "requireMemberType": 0,
            "memberIcon": ""
        },
        {
            "episode": 106,
            "title": "Wicks",
            "resourceLink": "https://bcdn.hakunaymatata.com/bt/2857b4a5514b33c481fd70a951c6eef1.mp4?sign=f08522a5719b8be269da6bedfea4650d&t=1775471803",
            "linkType": 2,
            "size": "158743854",
            "uploadBy": "KIDI",
            "resourceId": "4072488044828445032",
            "postId": "9203812432592995896",
            "extCaptions": [],
            "se": 1,
            "ep": 6,
            "sourceUrl": "https://ailok.pe/info/Banshee-480P season-1/episode-6-480P-r360P-264",
            "resolution": 360,
            "codecName": "h264",
            "duration": 3202,
            "requireMemberType": 0,
            "memberIcon": ""
        },
        {
            "episode": 107,
            "title": "Behold a Pale Rider",
            "resourceLink": "https://bcdn.hakunaymatata.com/bt/de5b02f5404378eaba114aa67799e96f.mp4?sign=e71c1bc5885d5e6dbb43147d85d38536&t=1775471138",
            "linkType": 2,
            "size": "128389255",
            "uploadBy": "laboudeuse",
            "resourceId": "8099443883999987488",
            "postId": "2782058076998960760",
            "extCaptions": [],
            "se": 1,
            "ep": 7,
            "sourceUrl": "https://ailok.pe/info/Banshee-480P season-1/episode-7-480P-r360P-264",
            "resolution": 360,
            "codecName": "h264",
            "duration": 2598,
            "requireMemberType": 0,
            "memberIcon": ""
        },
        {
            "episode": 108,
            "title": "We Shall Live Forever",
            "resourceLink": "https://bcdn.hakunaymatata.com/bt/e004fc744d7909505f7b7d3ba4940978.mp4?sign=6f0103479738aab3548e33b298bc4aba&t=1775471383",
            "linkType": 2,
            "size": "145073474",
            "uploadBy": "Houda Bondok",
            "resourceId": "7672024131864856352",
            "postId": "4097109168191145048",
            "extCaptions": [],
            "se": 1,
            "ep": 8,
            "sourceUrl": "https://ailok.pe/info/Banshee-480P season-1/episode-8-480P-r360P-264",
            "resolution": 360,
            "codecName": "h264",
            "duration": 2922,
            "requireMemberType": 0,
            "memberIcon": ""
        },
        {
            "episode": 109,
            "title": "Always the Cowboy",
            "resourceLink": "https://bcdn.hakunaymatata.com/bt/d535539b5f52e192e481bb8a671839cf.mp4?sign=89be075abf1a31599f101fcc1f3b5a7e&t=1775471876",
            "linkType": 2,
            "size": "132090768",
            "uploadBy": "Dance God \ud83e\udd85\ud83c\uddec\ud83c\udded",
            "resourceId": "6138303267652125320",
            "postId": "7135534303723012408",
            "extCaptions": [],
            "se": 1,
            "ep": 9,
            "sourceUrl": "https://ailok.pe/info/Banshee-480P season-1/episode-9-480P-r360P-264",
            "resolution": 360,
            "codecName": "h264",
            "duration": 2670,
            "requireMemberType": 0,
            "memberIcon": ""
        },
        {
            "episode": 110,
            "title": "A Mixture of Madness",
            "resourceLink": "https://bcdn.hakunaymatata.com/bt/f202c711777cb88cde55fffc4a1da94e.mp4?sign=3a6a26247864e4041ab31c0ca25a4c76&t=1775471670",
            "linkType": 2,
            "size": "171103802",
            "uploadBy": "Mogulskyofficial",
            "resourceId": "2259789194811820392",
            "postId": "8558671785972091056",
            "extCaptions": [],
            "se": 1,
            "ep": 10,
            "sourceUrl": "https://ailok.pe/info/Banshee-480P season-1/episode-10-480P-r360P-264",
            "resolution": 360,
            "codecName": "h264",
            "duration": 3403,
            "requireMemberType": 0,
            "memberIcon": ""
        }
    ],
    "subjectId": "1076625875212323512",
    "subjectType": 2,
    "cover": {
        "url": "https://pbcdn.aoneroom.com/image/2026/01/27/5922f579bf092d76be70362f6926f709.jpg",
        "width": 338,
        "height": 500,
        "size": 29586,
        "format": "jpg",
        "thumbnail": "eLE28vJBJU$zkV}@WCbbsVX79}xDxFRnR+5qxDo0WEn+o{W:ahs.jY",
        "gif": null,
        "averageHueLight": "#6c5230",
        "averageHueDark": "#664f32"
    },
    "subjectTitle": "Banshee",
    "totalSize": "5373431680",
    "totalEpisode": 38,
    "position": 0,
    "resolution": 360,
    "collectionResolutions": [
        {
            "resolution": 360,
            "averageSize": "141406096",
            "epNum": 38,
            "requireMemberType": 0,
            "memberIcon": ""
        },
        {
            "resolution": 480,
            "averageSize": "114739185",
            "epNum": 38,
            "requireMemberType": 0,
            "memberIcon": ""
        },
        {
            "resolution": 720,
            "averageSize": "394661456",
            "epNum": 35,
            "requireMemberType": 0,
            "memberIcon": ""
        },
        {
            "resolution": 1080,
            "averageSize": "656112832",
            "epNum": 37,
            "requireMemberType": 0,
            "memberIcon": ""
        }
    ],
    "description": "",
    "genre": "Action,Crime,Drama",
    "tags": [],
    "favInfo": null,
    "releaseDate": "",
    "countryName": "",
    "durationSeconds": 117257
}